full_adder/fa_sim/dump.vcd
$date
	Fri Oct  6 06:13:59 2023
$end
$version
	Icarus Verilog
$end
$timescale
	1ns
$end
$scope module test_fa $end
$var wire 1 ! sum $end
$var wire 1 " co $end
$var reg 1 # a $end
$var reg 1 $ b $end
$var reg 1 % cin $end
$var integer 32 & i [31:0] $end
$upscope $end
$enddefinitions $end
$comment Show the parameter values. $end
$dumpall
$end
#0
$dumpvars
b0 &
0%
0$
0#
0"
0!
$end
#5
1!
1%
b1 &
#10
1!
1$
0%
b10 &
#15
1"
0!
1%
b11 &
#20
0"
1!
1#
0$
0%
b100 &
#25
1"
0!
1%
b101 &
#30
0!
1$
0%
b110 &
#35
1!
1%
b111 &
#40
b1000 &
